%YAML 1.1
%TAG !u! tag:unity3d.com,2011:
--- !u!114 &11400000
MonoBehaviour:
  m_ObjectHideFlags: 0
  m_CorrespondingSourceObject: {fileID: 0}
  m_PrefabInstance: {fileID: 0}
  m_PrefabAsset: {fileID: 0}
  m_GameObject: {fileID: 0}
  m_Enabled: 1
  m_EditorHideFlags: 0
  m_Script: {fileID: 11500000, guid: d376abaad1421174f8aa6b38d2c1dc3a, type: 3}
  m_Name: AK-47
  m_EditorClassIdentifier: 
  _itemType: ak-47Default
  _title: AK-47
  _description: "The AK-47, officially known as the Avtomat Kalashnikova (Russian:
    \u0410\u0432\u0442\u043E\u043C\u0430\u0442 \u041A\u0430\u043B\u0430\u0448\u043D\u0438\u043A\u043E\u0432\u0430,
    lit. 'Kalashnikov's automatic [rifle]'; also known as the Kalashnikov or just
    AK), is a gas-operated assault rifle that is chambered for the 7.62\xD739mm cartridge."
  _weight: 3.47
  _amount: 1
  _isCanEquip: 1
  _eachInNewSlot: 1
  _iconInInventory: {fileID: -1605961364, guid: fb4ab9a85e48dcb499a673ed12c33aba, type: 3}
  _spriteItem: {fileID: -1605961364, guid: fb4ab9a85e48dcb499a673ed12c33aba, type: 3}
  _prefab: {fileID: 0}
  _colliderPoints:
  - {x: -0.12649012, y: 0.04776001}
  - {x: 0.37951517, y: 0.047930717}
  - {x: 0.4938178, y: 0.008520126}
  - {x: 0.14839792, y: -0.23005772}
  - {x: -0.47118282, y: -0.10209179}
  - {x: -0.4855361, y: -0.004453659}
  _soundThrow:
  - {fileID: 8300000, guid: 0e66bf5d7d92fc14b97e943010cfad8b, type: 3}
  _soundImpact:
  - {fileID: 8300000, guid: 9ce8761a0d0f325428d348db9c29ab6c, type: 3}
  _soundPickUp:
  - {fileID: 8300000, guid: 01dae596694371149ac4766242a410aa, type: 3}
  _soundTake:
  - {fileID: 8300000, guid: 9158afb6966d445db9caf1dccf7acbcc, type: 3}
  _soundEquip:
  - {fileID: 8300000, guid: f3cc3725d1f508a4794891950fa5c4c6, type: 3}
  _ammoTypeConfig:
  - {fileID: 11400000, guid: 253163f4c89db6247bd5738aa2ef7b80, type: 2}
  _defaultAmmoType: 0
  _reloadTime: 3
  _shootTime: 0.15
  _startShootTime: 0
  _endShootTime: 0
  _flashTime: 0.2
  _clipCapacity: 30
  _damage: 30
  _bulletSpeed: 20
  _forceRecoil:
    serializedVersion: 2
    m_Curve:
    - serializedVersion: 3
      time: 0
      value: 0
      inSlope: 2.1051865
      outSlope: 2.1051865
      tangentMode: 34
      weightedMode: 0
      inWeight: 0
      outWeight: 0.33333334
    - serializedVersion: 3
      time: 0.047506656
      value: 0.10001037
      inSlope: -0.1406975
      outSlope: -0.1406975
      tangentMode: 0
      weightedMode: 0
      inWeight: 1
      outWeight: 0.0674494
    - serializedVersion: 3
      time: 1
      value: 0
      inSlope: 0
      outSlope: 0
      tangentMode: 0
      weightedMode: 0
      inWeight: 0.073965915
      outWeight: 0
    m_PreInfinity: 2
    m_PostInfinity: 2
    m_RotationOrder: 4
  _lengthRecoil: 0
  _accuracy: 0.929
  _bulletAmountPerShot: 1
  _isBurstShooting: 0
  _isPlayReloadSoundEqualClipCapacity: 0
  _gripPositon: {x: -0.1, y: -0.09, z: 0}
  _handguardPosition: {x: 0.257, y: -0.027, z: 0}
  _clipPosition: {x: 0.074, y: 0.028, z: 0}
  _shotFlashPosition: {x: 0.485, y: 0.002, z: 0}
  _spriteWeaponNoClip: {fileID: -1605961364, guid: 65285a16ae82740468f74f6d552afbb6, type: 3}
  _spriteClip: {fileID: -889487130, guid: 65285a16ae82740468f74f6d552afbb6, type: 3}
  _spriteShotFlash: {fileID: -2038269663, guid: bf472df2abe5da343ae31d597fe638d7, type: 3}
  _positionX:
    serializedVersion: 2
    m_Curve:
    - serializedVersion: 3
      time: -1.0000001
      value: 0.185
      inSlope: 1.8405689
      outSlope: 1.8405689
      tangentMode: 0
      weightedMode: 0
      inWeight: 0.33333334
      outWeight: 0.33333334
    - serializedVersion: 3
      time: -0.9396927
      value: 0.296
      inSlope: 1.2062004
      outSlope: 1.2062004
      tangentMode: 0
      weightedMode: 0
      inWeight: 0.33333334
      outWeight: 0.33333334
    - serializedVersion: 3
      time: -0.7071068
      value: 0.429
      inSlope: 0.3057149
      outSlope: 0.3057149
      tangentMode: 0
      weightedMode: 0
      inWeight: 0.33333334
      outWeight: 0.33333334
    - serializedVersion: 3
      time: 0
      value: 0.457
      inSlope: -0.047072154
      outSlope: -0.047072154
      tangentMode: 0
      weightedMode: 0
      inWeight: 0.2226634
      outWeight: 0.33333334
    - serializedVersion: 3
      time: 0.7071068
      value: 0.236
      inSlope: -0.5281763
      outSlope: -0.5281763
      tangentMode: 0
      weightedMode: 0
      inWeight: 0.33333334
      outWeight: 0.33333334
    - serializedVersion: 3
      time: 0.9396927
      value: 0.063
      inSlope: -1.4911704
      outSlope: -1.4911704
      tangentMode: 0
      weightedMode: 0
      inWeight: 0.33333334
      outWeight: 0.33333334
    - serializedVersion: 3
      time: 1.0000001
      value: -0.072
      inSlope: -2.2385294
      outSlope: -2.2385294
      tangentMode: 0
      weightedMode: 0
      inWeight: 0.33333334
      outWeight: 0.33333334
    m_PreInfinity: 2
    m_PostInfinity: 2
    m_RotationOrder: 4
  _positionY:
    serializedVersion: 2
    m_Curve:
    - serializedVersion: 3
      time: -1.0000001
      value: 0.115
      inSlope: 0.6135228
      outSlope: 0.6135228
      tangentMode: 0
      weightedMode: 0
      inWeight: 0.33333334
      outWeight: 0.33333334
    - serializedVersion: 3
      time: -0.9396927
      value: 0.152
      inSlope: 0.65502
      outSlope: 0.65502
      tangentMode: 0
      weightedMode: 0
      inWeight: 0.33333334
      outWeight: 0.33333334
    - serializedVersion: 3
      time: -0.7071068
      value: 0.314
      inSlope: 0.5999886
      outSlope: 0.5999886
      tangentMode: 0
      weightedMode: 0
      inWeight: 0.33333334
      outWeight: 0.33333334
    - serializedVersion: 3
      time: 0
      value: 0.67
      inSlope: 0.463862
      outSlope: 0.463862
      tangentMode: 0
      weightedMode: 0
      inWeight: 0.33333334
      outWeight: 0.33333334
    - serializedVersion: 3
      time: 0.7071068
      value: 0.97
      inSlope: 0.26372585
      outSlope: 0.26372585
      tangentMode: 0
      weightedMode: 0
      inWeight: 0.33333334
      outWeight: 0.33333334
    - serializedVersion: 3
      time: 0.9396927
      value: 0.994
      inSlope: -0.01473311
      outSlope: -0.01473311
      tangentMode: 0
      weightedMode: 0
      inWeight: 0.33333334
      outWeight: 0.33333334
    - serializedVersion: 3
      time: 1.0000001
      value: 0.986
      inSlope: -0.13265388
      outSlope: -0.13265388
      tangentMode: 0
      weightedMode: 0
      inWeight: 0.33333334
      outWeight: 0.33333334
    m_PreInfinity: 2
    m_PostInfinity: 2
    m_RotationOrder: 4
  _bulletType: 1
  _shootSound: {fileID: 8300000, guid: 767a071e984ee774a8eeaf3bc9fb5314, type: 3}
  _reloadSound: {fileID: 8300000, guid: 40d32ae05d7c7484db0423f7354a6d40, type: 3}
  _startShootSound: {fileID: 0}
  _endShootSound: {fileID: 0}
  _noAmmoSound: {fileID: 8300000, guid: 9a860ce02d7dc1a4c92d15e63dee3a16, type: 3}
